{
	"info": {
		"_postman_id": "b8e02058-b55a-4113-8850-fd8ede70adff",
		"name": "Task-27-10",
		"description": "This is a collection of all APIs created for the task of Day 3&4 of the backend track",
		"schema": "https://schema.getpostman.com/json/collection/v2.1.0/collection.json"
	},
	"item": [
		{
			"name": "Students APIs",
			"item": [
				{
					"name": "Testing Accessing Students Page",
					"request": {
						"method": "GET",
						"header": [],
						"url": {
							"raw": "http://localhost:8080/api/students",
							"protocol": "http",
							"host": [
								"localhost"
							],
							"port": "8080",
							"path": [
								"api",
								"students"
							]
						},
						"description": "This API gets the text returned from accessing the students home API"
					},
					"response": []
				},
				{
					"name": "Get All Students",
					"request": {
						"method": "GET",
						"header": [],
						"url": {
							"raw": "http://localhost:8080/api/students/all",
							"protocol": "http",
							"host": [
								"localhost"
							],
							"port": "8080",
							"path": [
								"api",
								"students",
								"all"
							]
						}
					},
					"response": []
				},
				{
					"name": "Delete Student By ID",
					"request": {
						"method": "DELETE",
						"header": [],
						"body": {
							"mode": "raw",
							"raw": "{\r\n    \"id\":\"1152003\"\r\n}",
							"options": {
								"raw": {
									"language": "json"
								}
							}
						},
						"url": {
							"raw": "http://localhost:8080/api/students/deleteByID",
							"protocol": "http",
							"host": [
								"localhost"
							],
							"port": "8080",
							"path": [
								"api",
								"students",
								"deleteByID"
							]
						}
					},
					"response": []
				},
				{
					"name": "Add New Student",
					"request": {
						"method": "POST",
						"header": [],
						"body": {
							"mode": "raw",
							"raw": "{\r\n    \"id\" : \"1152003\",\r\n    \"name\" : \"Amr Khaled\",\r\n    \"enrollmentYear\" : \"2015\",\r\n    \"major\" : \"CCE-C\"\r\n}",
							"options": {
								"raw": {
									"language": "json"
								}
							}
						},
						"url": {
							"raw": "http://localhost:8080/api/students/add",
							"protocol": "http",
							"host": [
								"localhost"
							],
							"port": "8080",
							"path": [
								"api",
								"students",
								"add"
							]
						}
					},
					"response": []
				},
				{
					"name": "Edit Student Data",
					"request": {
						"method": "PUT",
						"header": [],
						"body": {
							"mode": "raw",
							"raw": "{\r\n    \"id\" : \"1152003\",\r\n    \"name\": \"Amr Khaled\",\r\n    \"enrollmentYear\" : \"2015\",\r\n    \"major\" : \"CCE-E\"\r\n}",
							"options": {
								"raw": {
									"language": "json"
								}
							}
						},
						"url": {
							"raw": "http://localhost:8080/api/students/edit/1152003",
							"protocol": "http",
							"host": [
								"localhost"
							],
							"port": "8080",
							"path": [
								"api",
								"students",
								"edit",
								"1152003"
							]
						}
					},
					"response": []
				},
				{
					"name": "Get students by enrollment year",
					"protocolProfileBehavior": {
						"disableBodyPruning": true
					},
					"request": {
						"method": "GET",
						"header": [],
						"body": {
							"mode": "raw",
							"raw": "{\r\n    \"enrollmentYear\" : \"2015\"\r\n}",
							"options": {
								"raw": {
									"language": "json"
								}
							}
						},
						"url": {
							"raw": "http://localhost:8080/api/students/year",
							"protocol": "http",
							"host": [
								"localhost"
							],
							"port": "8080",
							"path": [
								"api",
								"students",
								"year"
							]
						}
					},
					"response": []
				},
				{
					"name": "Paginate students",
					"request": {
						"method": "GET",
						"header": [],
						"url": {
							"raw": "http://localhost:8080/api/students/all/0/2",
							"protocol": "http",
							"host": [
								"localhost"
							],
							"port": "8080",
							"path": [
								"api",
								"students",
								"all",
								"0",
								"2"
							]
						}
					},
					"response": []
				}
			],
			"protocolProfileBehavior": {}
		},
		{
			"name": "Classes APIs",
			"item": [
				{
					"name": "Testing Accessing Classes Page",
					"request": {
						"method": "GET",
						"header": [],
						"url": {
							"raw": "http://localhost:8080/api/classes",
							"protocol": "http",
							"host": [
								"localhost"
							],
							"port": "8080",
							"path": [
								"api",
								"classes"
							]
						},
						"description": "This API gets the text returned from accessing the classes home API"
					},
					"response": []
				},
				{
					"name": "Get all classes",
					"request": {
						"method": "GET",
						"header": [],
						"url": {
							"raw": "http://localhost:8080/api/classes/all",
							"protocol": "http",
							"host": [
								"localhost"
							],
							"port": "8080",
							"path": [
								"api",
								"classes",
								"all"
							]
						}
					},
					"response": []
				},
				{
					"name": "Delete course by ID",
					"request": {
						"method": "DELETE",
						"header": [],
						"body": {
							"mode": "raw",
							"raw": "{\r\n    \"id\" : \"CMPN-400\"\r\n}",
							"options": {
								"raw": {
									"language": "json"
								}
							}
						},
						"url": {
							"raw": "http://localhost:8080/api/classes/deleteByID",
							"protocol": "http",
							"host": [
								"localhost"
							],
							"port": "8080",
							"path": [
								"api",
								"classes",
								"deleteByID"
							]
						}
					},
					"response": []
				},
				{
					"name": "Add new course",
					"request": {
						"method": "POST",
						"header": [],
						"body": {
							"mode": "raw",
							"raw": "{\r\n    \"id\": \"CMPN-500\",\r\n    \"name\": \"Database Design\",\r\n    \"classStudents\": []\r\n}",
							"options": {
								"raw": {
									"language": "json"
								}
							}
						},
						"url": {
							"raw": "http://localhost:8080/api/classes/add",
							"protocol": "http",
							"host": [
								"localhost"
							],
							"port": "8080",
							"path": [
								"api",
								"classes",
								"add"
							]
						}
					},
					"response": []
				},
				{
					"name": "Paginate classes",
					"request": {
						"method": "GET",
						"header": [],
						"url": {
							"raw": "http://localhost:8080/api/classes/all/0/3",
							"protocol": "http",
							"host": [
								"localhost"
							],
							"port": "8080",
							"path": [
								"api",
								"classes",
								"all",
								"0",
								"3"
							]
						}
					},
					"response": []
				}
			],
			"protocolProfileBehavior": {}
		}
	],
	"protocolProfileBehavior": {}
}